_____________________________________________
IP: 10.0.2.2
MAC: 52:54:00:12:35:02
Identificacion: QEMU
_____________________________________________
IP: 10.0.2.3
MAC: 52:54:00:12:35:03
Identificacion: QEMU
_____________________________________________
IP: 10.0.2.4
MAC: 52:54:00:12:35:04
Identificacion: QEMU
